<?xml version="1.0" encoding="UTF-8"?>
<!-- Generator: Adobe Illustrator 24.3.0, SVG Export Plug-In . SVG Version: 6.00 Build 0)  -->
<svg version="1.1" id="Capa_1" xmlns="http://www.w3.org/2000/svg" xmlns:xlink="http://www.w3.org/1999/xlink" x="0px" y="0px" viewBox="0 0 62.7 28" style="enable-background:new 0 0 62.7 28;" xml:space="preserve">
<style type="text/css">
	.st0{fill:#1D1D1B;}
	.st1{fill:#575756;}
	.st2{fill:#D5D5D8;}
	.st3{fill:#8DBD22;}
	.st4{opacity:0.1;clip-path:url(#SVGID_2_);fill:#21421D;}
	.st5{fill:#FFFFFF;}
</style>
<g>
	<g>
		<g>
			<path class="st0" d="M24.5,6.5h-1.8V9h-0.5V2.4h2.4c1.5,0,2.5,0.8,2.5,2v0C27.1,5.8,25.9,6.5,24.5,6.5z M26.6,4.4     c0-1.1-0.8-1.6-2-1.6h-1.9v3.3h1.8C25.8,6.1,26.6,5.4,26.6,4.4L26.6,4.4z"/>
			<path class="st0" d="M33.5,9l-0.8-1.9h-3.9L27.9,9h-0.5l3.1-6.7h0.5L34,9H33.5z M30.7,2.9l-1.8,3.9h3.5L30.7,2.9z"/>
			<path class="st0" d="M38.1,9.1c-2.1,0-3.3-1.6-3.3-3.4v0c0-1.8,1.3-3.4,3.3-3.4c1.1,0,1.8,0.3,2.4,0.9l-0.3,0.4     C39.6,3,39,2.7,38,2.7c-1.6,0-2.7,1.4-2.7,3v0c0,1.7,1.1,3,2.9,3c0.8,0,1.6-0.4,2.1-0.8V6H38V5.6h2.7v2.6     C40.1,8.7,39.2,9.1,38.1,9.1z"/>
			<path class="st0" d="M45.6,9.1c-2,0-3.3-1.6-3.3-3.4v0c0-1.8,1.3-3.4,3.4-3.4c2,0,3.3,1.6,3.3,3.4c0,0,0,0,0,0     C48.9,7.5,47.6,9.1,45.6,9.1z M48.4,5.7c0-1.6-1.2-3-2.8-3c-1.6,0-2.8,1.3-2.8,3v0c0,1.6,1.2,3,2.8,3C47.2,8.7,48.4,7.4,48.4,5.7     L48.4,5.7z"/>
		</g>
	</g>
	<g>
		<path class="st1" d="M23.4,10.4h1v6.7h-1.4v-5.2l-1.2,0.3l-0.3-1.2L23.4,10.4z"/>
		<path class="st1" d="M28.7,17.2c-1.8,0-2.9-1.5-2.9-3.4s1.2-3.5,3-3.5s2.9,1.5,2.9,3.4S30.5,17.2,28.7,17.2z M28.7,11.6    c-0.9,0-1.4,0.9-1.4,2.1s0.6,2.1,1.5,2.1s1.4-0.9,1.4-2.1S29.6,11.6,28.7,11.6z"/>
		<path class="st1" d="M35.7,17.2c-1.8,0-2.9-1.5-2.9-3.4s1.2-3.5,3-3.5c1.8,0,2.9,1.5,2.9,3.4S37.4,17.2,35.7,17.2z M35.7,11.6    c-0.9,0-1.4,0.9-1.4,2.1s0.6,2.1,1.5,2.1c0.9,0,1.4-0.9,1.4-2.1S36.6,11.6,35.7,11.6z"/>
		<path class="st1" d="M41.2,13.7c-1,0-1.6-0.8-1.6-1.7c0-1,0.7-1.7,1.6-1.7c1,0,1.6,0.8,1.6,1.7C42.8,13,42.2,13.7,41.2,13.7z     M41.4,17.1h-1.1l4.9-6.7h1.1L41.4,17.1z M41.2,11.2c-0.4,0-0.6,0.4-0.6,0.8c0,0.5,0.2,0.8,0.6,0.8c0.4,0,0.6-0.4,0.6-0.8    C41.8,11.6,41.6,11.2,41.2,11.2z M45.3,17.1c-1,0-1.6-0.8-1.6-1.7c0-1,0.7-1.7,1.6-1.7c1,0,1.6,0.8,1.6,1.7    C46.9,16.4,46.2,17.1,45.3,17.1z M45.3,14.6c-0.4,0-0.6,0.4-0.6,0.8c0,0.5,0.2,0.8,0.6,0.8c0.4,0,0.6-0.4,0.6-0.8    C45.9,15,45.7,14.6,45.3,14.6z"/>
	</g>
	<g>
		<path class="st0" d="M24.5,25.3c-1.1,0-1.9-0.4-2.7-1.1l0.3-0.4c0.7,0.7,1.4,1,2.4,1c1,0,1.7-0.6,1.7-1.3v0c0-0.7-0.4-1.1-1.9-1.4    c-1.6-0.3-2.2-0.9-2.2-1.9v0c0-1,0.9-1.7,2.1-1.7c1,0,1.6,0.3,2.3,0.8l-0.3,0.4c-0.6-0.5-1.3-0.8-2-0.8c-1,0-1.6,0.6-1.6,1.3v0    c0,0.7,0.4,1.1,1.9,1.5c1.5,0.3,2.2,0.9,2.2,1.8v0C26.7,24.5,25.8,25.3,24.5,25.3z"/>
		<path class="st0" d="M28.3,25.2v-6.7h4.7V19h-4.2v2.6h3.8V22h-3.8v2.7h4.3v0.5H28.3z"/>
		<path class="st0" d="M37.8,25.3c-2.1,0-3.3-1.6-3.3-3.4v0c0-1.8,1.3-3.4,3.3-3.4c1.1,0,1.8,0.3,2.4,0.9l-0.3,0.4    c-0.5-0.5-1.1-0.8-2.1-0.8c-1.6,0-2.7,1.4-2.7,3v0c0,1.7,1.1,3,2.9,3c0.8,0,1.6-0.4,2.1-0.8v-1.9h-2.2v-0.5h2.7v2.6    C39.8,24.8,38.8,25.3,37.8,25.3z"/>
		<path class="st0" d="M44.8,25.3c-1.6,0-2.7-1-2.7-2.9v-3.9h0.5v3.8c0,1.6,0.8,2.5,2.3,2.5c1.4,0,2.2-0.8,2.2-2.4v-3.9h0.5v3.8    C47.5,24.2,46.4,25.3,44.8,25.3z"/>
		<path class="st0" d="M54.2,25.2l-2.1-2.8h-2.2v2.8h-0.5v-6.7h2.8c1.4,0,2.4,0.8,2.4,1.9v0c0,1.1-0.8,1.7-1.9,1.9l2.2,2.8H54.2z     M54.1,20.4c0-0.9-0.7-1.5-1.9-1.5h-2.3v3h2.2C53.2,22,54.1,21.4,54.1,20.4L54.1,20.4z"/>
		<path class="st0" d="M59.3,25.3c-2,0-3.3-1.6-3.3-3.4v0c0-1.8,1.3-3.4,3.4-3.4c2,0,3.3,1.6,3.3,3.4c0,0,0,0,0,0    C62.7,23.6,61.3,25.3,59.3,25.3z M62.1,21.8c0-1.6-1.2-3-2.8-3c-1.6,0-2.8,1.3-2.8,3v0c0,1.6,1.2,3,2.8,3    C61,24.8,62.1,23.5,62.1,21.8L62.1,21.8z"/>
	</g>
</g>
<g>
	<g>
		<g>
			<g>
				<g>
					<path class="st2" d="M17.8,11H15V8.8c0-3-2.5-5.5-5.5-5.5C6.4,3.4,4,5.8,4,8.8V11H1.1V8.8c0-4.6,3.8-8.4,8.4-8.4       c4.6,0,8.4,3.8,8.4,8.4V11z"/>
					<path class="st3" d="M10.1,27.2H8.8c-4.9,0-8.8-3.9-8.8-8.8l0-6.5C0,11.4,0.4,11,0.9,11H18c0.5,0,0.9,0.4,0.9,0.9v6.5       C18.9,23.2,15,27.2,10.1,27.2z"/>
					<g>
						<defs>
							<path id="SVGID_1_" d="M17.8,11V9.1c0.1-4.8-3.5-8.3-7.8-8.6C5.2,0.2,1.1,4,1.1,8.8V11H0.7C0.3,11,0,11.3,0,11.7v6         c0,5.2,4.2,9.5,9.5,9.5h0c5.2,0,9.5-4.2,9.5-9.5v-6c0-0.4-0.3-0.7-0.7-0.7H17.8z M4,8.8c0-3,2.5-5.5,5.5-5.5         c3,0,5.5,2.5,5.5,5.5V11H4V8.8z"/>
						</defs>
						<clipPath id="SVGID_2_">
							<use xlink:href="#SVGID_1_" style="overflow:visible;"/>
						</clipPath>
						<rect x="9.5" y="11" class="st4" width="9.5" height="16.2"/>
					</g>
				</g>
			</g>
		</g>
	</g>
	<g>
		<polygon class="st5" points="8.6,23.3 4.2,19.1 6.1,17.3 8.6,19.7 13.7,14.9 15.6,16.7   "/>
	</g>
</g>
</svg>